<svg
   xmlns:dc="http://purl.org/dc/elements/1.1/"
   xmlns:cc="http://creativecommons.org/ns#"
   xmlns:rdf="http://www.w3.org/1999/02/22-rdf-syntax-ns#"
   xmlns:svg="http://www.w3.org/2000/svg"
   xmlns="http://www.w3.org/2000/svg"
   xmlns:xlink="http://www.w3.org/1999/xlink"
   xmlns:sodipodi="http://sodipodi.sourceforge.net/DTD/sodipodi-0.dtd"
   xmlns:inkscape="http://www.inkscape.org/namespaces/inkscape"
   width="36"
   height="36"
   viewBox="0 0 4.2333332 4.2333335"
   version="1.1"
   id="svg1468"
   sodipodi:docname="codeberg.svg"
   inkscape:version="1.0.2 (e86c870879, 2021-01-15)"
   inkscape:export-filename="/home/robert/Documents/Codeberg/Logo-Kit/svg/Codeberg-favicon_inverted_64px.png"
   inkscape:export-xdpi="191"
   inkscape:export-ydpi="191">
  <title
     id="title16">Codeberg</title>
  <defs
     id="defs1462">
    <linearGradient
       xlink:href="#linearGradient6924"
       id="linearGradient6918"
       x1="42519.285"
       y1="-7078.7891"
       x2="42575.336"
       y2="-6966.9307"
       gradientUnits="userSpaceOnUse" />
    <linearGradient
       id="linearGradient6924">
      <stop
         style="stop-color:#ffffff;stop-opacity:0"
         offset="0"
         id="stop6920" />
      <stop
         id="stop6926"
         offset="0.49517274"
         style="stop-color:#ffffff;stop-opacity:1" />
      <stop
         style="stop-color:#ffffff;stop-opacity:1"
         offset="1"
         id="stop6922" />
    </linearGradient>
  </defs>
  <sodipodi:namedview
     showborder="false"
     id="base"
     pagecolor="#000000"
     bordercolor="#666666"
     borderopacity="1.0"
     inkscape:pageopacity="0"
     inkscape:pageshadow="2"
     inkscape:zoom="7.9999999"
     inkscape:cx="29.987435"
     inkscape:cy="0.51697089"
     inkscape:document-units="px"
     inkscape:current-layer="g6933"
     inkscape:document-rotation="0"
     showgrid="false"
     fit-margin-top="0"
     fit-margin-left="0"
     fit-margin-right="0"
     fit-margin-bottom="0"
     units="px"
     inkscape:snap-global="false"
     inkscape:snap-page="true"
     showguides="false"
     inkscape:window-width="1916"
     inkscape:window-height="1006"
     inkscape:window-x="0"
     inkscape:window-y="72"
     inkscape:window-maximized="1">
    <inkscape:grid
       type="xygrid"
       id="grid2067" />
  </sodipodi:namedview>
  <metadata
     id="metadata1465">
    <rdf:RDF>
      <cc:Work
         rdf:about="">
        <dc:format>image/svg+xml</dc:format>
        <dc:type
           rdf:resource="http://purl.org/dc/dcmitype/StillImage" />
        <dc:title>Codeberg logo favicon</dc:title>
        <cc:license
           rdf:resource="http://creativecommons.org/licenses/by/4.0/" />
        <dc:creator>
          <cc:Agent>
            <dc:title>Robert Martinez</dc:title>
          </cc:Agent>
        </dc:creator>
        <dc:rights>
          <cc:Agent>
            <dc:title>Codeberg and the Codeberg Logo are trademarks of Codeberg e.V.</dc:title>
          </cc:Agent>
        </dc:rights>
        <dc:date>2020-05-31</dc:date>
      </cc:Work>
      <cc:License
         rdf:about="http://creativecommons.org/licenses/by/4.0/">
        <cc:permits
           rdf:resource="http://creativecommons.org/ns#Reproduction" />
        <cc:permits
           rdf:resource="http://creativecommons.org/ns#Distribution" />
        <cc:requires
           rdf:resource="http://creativecommons.org/ns#Notice" />
        <cc:requires
           rdf:resource="http://creativecommons.org/ns#Attribution" />
        <cc:permits
           rdf:resource="http://creativecommons.org/ns#DerivativeWorks" />
      </cc:License>
    </rdf:RDF>
  </metadata>
  <g
     inkscape:label="Layer 1"
     inkscape:groupmode="layer"
     id="layer1"
     transform="translate(-44.867463,-75.990641)">
    <g
       id="g6933"
       transform="matrix(0.09136496,0,0,0.09136496,-980.82243,248.23174)">
      <path
         transform="scale(0.26458333)"
         d="m 42519.285,-7078.7891 a 0.76086879,0.56791688 0 0 0 -0.738,0.6739 l 33.586,125.8886 a 87.182358,87.182358 0 0 0 39.381,-33.7636 l -71.565,-92.5196 a 0.76086879,0.56791688 0 0 0 -0.664,-0.2793 z"
         style="stop-opacity:1;stop-color:#000000;paint-order:stroke markers fill;stroke-opacity:1;stroke-dashoffset:0;stroke-dasharray:none;stroke-miterlimit:2;stroke-linejoin:miter;stroke-linecap:butt;stroke-width:3.67846;stroke:none;fill-opacity:1;fill:currentColor;vector-effect:none;opacity:0.5;font-variation-settings:normal;"
         id="path6733" />
      <path
         d="m 42517.32,-7119.4805 a 87.182358,87.182358 0 0 0 -86.855,87.1817 87.182358,87.182358 0 0 0 13.312,46.3047 l 72.688,-93.9727 a 1.3609979,1.0158567 0 0 1 2.359,0 l 72.692,93.9766 a 87.182358,87.182358 0 0 0 13.314,-46.3086 87.182358,87.182358 0 0 0 -87.182,-87.1817 87.182358,87.182358 0 0 0 -0.328,0 z"
         style="stop-color:#000000;paint-order:stroke markers fill;stroke-opacity:1;stroke-width:2.01453px;stroke:none;fill-opacity:1;fill:currentColor;opacity:1;"
         id="circle6810"
         transform="scale(0.26458333)" />
    </g>
  </g>
</svg>
